-------------------------------------------------------------------------------
Test set: com.mbadziong.stooq.stooq.data.marketindex.StooqMarketIndexDownloaderTest
-------------------------------------------------------------------------------
Tests run: 3, Failures: 0, Errors: 0, Skipped: 0, Time elapsed: 4.587 sec
